
// 人才库数据


{ timestamp: 1483777016577,
page: 1,
employer_user_id: 100017410306,
uid: 100017410306,
jt: 0,
key: undefined,
cid: 0,
dt: 0,
mp: 0,
wk: 0,
ws: 0,
et: 0,
ava: 0
}



//{"resumes":[{"rid":10007911605720,"version":1,"male":0,"user_id":100079116057,"name":"帅楠","avatar":"http://image.internbird.com/0a75ae741e47ca578bd8361e641e9dcb/c2261b8fe2786f9ce13de05d261cd1.png","work_state":2,"highest_degree_stage":2,"intern_expect_cid":[73],"intern_expect_city":"上海","intern_expect_dur_type":4,"intern_expect_positi":"审计，财务","intern_expect_position_type":[500,501,505],"intern_expect_days_type":4,"intern_expect_min_payment":100,"education_detail":"[{\"edu_id\":1,\"school\":\"江西,\"major\":\"会计学（ACCA方向）\",\"stage\":\"本科\",\"start_time\":\"2013.09\",\"end_time\":\"2017.07\"}]","self_desc":"<p></p><p>有上进心，有较强责任感，有独特的创新能力请教，上手能力强。</p><p>开朗大方，与周围的人相处较好，工作中会严谨仔细勤恳，生活中随和积极阳光。</p><p>&nbsp; &nbsp;</p><p></p><p><br/></p>","refresh_time":1470386258568,"_version_":1541817512752054300},{"rid":10003769666155,"version":0,"male":0,"user_id":100037696661,"name":"代楚","avatar":"http://image.internbird.com/47cd7fe601eafafba192f04b953f65/81544630b774524a5f934371ed1f7054.png","work_state":1,"highest_degree_stage":2,"intern_expect_cid":[288],"intern_expect_city":"西安","intern_expect_dur_type":"intern_expect_position":"金融实习生","intern_expect_position_type":[500,501,505],"intern_expect_days_type":5,"intern_expect_min_payment":100,"education_detail":"[{\"edu_1,\"school\":\"西安电子科技大学\",\"major\":\"金融学\",\"stage\":\"本科\",\"start_time\":\"2013.09\",\"end_time\":\"2017.07\"},{\"edu_id\":2,\"school\":\"山东大学\",\"majage\":\"本科\",\"start_time\":\"2015.09\",\"end_time\":\"2016.07\"}]","self_desc":"<ol class=\" list-paddingleft-2\" style=\"list-style-type: decimal;\"><li><p>我是金融学，具有丰富的金融学专业知识，课程不仅涉及金融投资学、证券投资学、西方经济学、金融工程学等专业性金融知识，同时涉及财会、保险、精算、市场营销、统计学的相关知识。</p></li><li"refresh_time":1470384352939,"_version_":1541817512751005700},{"rid":10005579568163,"version":0,"male":0,"user_id":100055795681,"name":"邢宇琦","avatar":"http://image.intbird.com/f601e6d0f636124db965b3e936048cb3/b21827e17ed9049f8ca78b3f980b4b1e.png","work_state":2,"highest_degree_stage":3,"intern_expect_cid":[1],"intern_expect_city":"北京"intern_expect_dur_type":3,"intern_expect_position":"运营或文案策划","intern_expect_position_type":[101,201,400],"intern_expect_days_type":4,"intern_expect_min_payment":5ation_detail":"[{\"edu_id\":1,\"school\":\"香港城市大学\",\"major\":\"中文\",\"stage\":\"硕士\",\"start_time\":\"2015.08\",\"end_time\":\"2016.09\"},{\"edu_id\":2,\"schoo大学\",\"major\":\"对外汉语\",\"stage\":\"本科\",\"start_time\":\"2011.09\",\"end_time\":\"2015.06\"}]","self_desc":"<p>性格热情开朗，对待工作认真，对社会热点、互联网事业281359,"_version_":1541817512751005700},{"rid":10005650609040,"version":0,"male":0,"user_id":100056506090,"name":"刘英佩","avatar":"http://image.internbird.com/ae8b86bad49ffe116b6cf92410190/d1a0a83c8d60cc2e037607f580431a32.png","work_state":2,"highest_degree_stage":3,"intern_expect_cid":[288],"intern_expect_city":"西安","intern_expect_durype":4,"intern_expect_position":"实习生","intern_expect_position_type":[200,204],"intern_expect_days_type":4,"intern_expect_min_payment":50,"education_detail":"[{\"edu_id1,\"school\":\"西南财经大学\",\"major\":\"国际商务\",\"stage\":\"硕士\",\"start_time\":\"2015.09\",\"end_time\":\"2017.06\"}]","self_desc":"","refresh_time":1470383784557:1541817512751005700},{"rid":10002757008191,"version":1,"male":1,"user_id":100027570081,"name":"陈家健","avatar":"http://image.internbird.com/f7fd18dff6293d70c48ed1bc7d00c/b04cd0558f540a78901e0383420cb568.png","work_state":0,"highest_degree_stage":2,"intern_expect_cid":[199],"intern_expect_city":"深圳","intern_expect_dur_type":4,"intern_eect_position":"电子硬件工程师助理","intern_expect_position_type":[301,302,303],"intern_expect_days_type":5,"intern_expect_min_payment":50,"education_detail":"[{\"edu_id\"ol\":\"深圳大学\",\"major\":\"集成电路与集成系统设计\",\"stage\":\"本科\",\"start_time\":\"2013.09\",\"end_time\":\"2017.06\"}]","self_desc":"<p>我有很强学习能力，服从上级","refresh_time":1470377751852,"_version_":1541817512751005700},{"rid":10003009914946,"version":0,"male":1,"user_id":100030099149,"name":"王盼峰","avatar":"http://image.irnbird.cn/e8d5b6d24c18a390db932c33c1b87b19/a0fa127307a3afe1fa5f82bd2bf0749b.png","work_state":2,"highest_degree_stage":1,"intern_expect_cid":[73],"intern_expect_city":"上","intern_expect_dur_type":4,"intern_expect_position":"监理员、施工员、资料员","intern_expect_position_type":[801],"intern_expect_days_type":5,"intern_expect_min_payment"ion_detail":"[{\"school\":\"天津工程职业技术学院\",\"end_time\":\"2016.07\",\"major\":\"工程造价\",\"start_time\":\"2013.09\",\"edu_id\":1,\"stage\":\"大专\"}]","self_desime":1470366997294,"_version_":1541817512751005700},{"rid":10002435788686,"version":0,"male":0,"user_id":100024357886,"name":"王洋","avatar":"","work_state":0,"highest_deee_stage":2,"intern_expect_cid":[199],"intern_expect_city":"天津市郊","intern_expect_dur_type":4,"intern_expect_position":"助理，实习生","intern_expect_position_type":[30_expect_days_type":1,"intern_expect_min_payment":0,"education_detail":"[{\"school\":\"天津城建大学\",\"end_time\":\"2019.06\",\"major\":\"电气工程及其自动化\",\"start_time\":\"2015.09\",\"edu_id\":1,\"stage\":\"本科\"}]","self_desc":"本人性格热情开朗，待人友好，为人诚实谦虚。工作勤奋，认真负责，能吃苦耐劳，尽职尽责，有耐心。具有亲和力，平自己的阅历，提高自己的能力。在工作中体会办事方式，锻炼口才和人际交往能力。\n在平时学校生活中，做过很多兼职。例如：派传单、问卷调查，还到保险公司打过暑期工，亲身体会了各种":1541817512751005700},{"rid":10004858734457,"version":0,"male":1,"user_id":100048587344,"name":"陈现辉","avatar":"","work_state":0,"highest_degree_stage":2,"intern_expecid":[1],"intern_expect_city":"北京","intern_expect_dur_type":3,"intern_expect_position":"android开发","intern_expect_position_type":[100],"intern_expect_days_type":4,"intn_expect_min_payment":200,"education_detail":"[{\"edu_id\":1,\"school\":\"西安电子科技大学\",\"major\":\"计算机科学与技术\",\"stage\":\"本科\",\"start_time\":\"2013.08\",7.07\"}]","self_desc":"<p>为人踏实，认真负责，学习能力强</p>","refresh_time":1470316363418,"_version_":1541817512751005700},{"rid":10005633296843,"version":0,"male":1,"us2968,"name":"王政","avatar":"","work_state":0,"highest_degree_stage":1,"intern_expect_cid":[1],"intern_expect_city":"北京","intern_expect_dur_type":1,"intern_expect_posit:"php","intern_expect_position_type":[100],"intern_expect_days_type":1,"intern_expect_min_payment":0,"education_detail":"[{\"edu_id\":1,\"school\":\"八维\",\"major\":\"ph",\"stage\":\"大专\",\"start_time\":\"2013.08\",\"end_time\":\"2016.07\"}]","self_desc":"","refresh_time":1470308892871,"_version_":1541817512749957000},{"rid":10003649475598,"version":1,"male":1,"user_id":100036494755,"name":"魏新翼","avatar":"http://image.internbird.com/ce6229612a1a7888e75db003fa36b017/b9dd724264440806c744121c656b792f.p,"work_state":0,"highest_degree_stage":2,"intern_expect_cid":[1],"intern_expect_city":"北京","intern_expect_dur_type":3,"intern_expect_position":"产品运营/自媒体运营","in_position_type":[101,500,505],"intern_expect_days_type":4,"intern_expect_min_payment":100,"education_detail":"[{\"edu_id\":1,\"school\":\"南京审计大学\",\"major\":\"内部审tage\":\"本科\",\"start_time\":\"2013.09\",\"end_time\":\"2017.07\"},{\"edu_id\":2,\"school\":\"University of Pretoria\",\"major\":\"Internal Auditing\",\"stage\":\"本科\start_time\":\"2016.01\",\"end_time\":\"2016.06\"}]","self_desc":"<p>在校期间曾任学生会主席，曾带队赴井冈山完成国家级社会实践并获优秀成果奖。</p><p>曾在国企协助网络运营，公众号并盈利。</p><p>顺利通过英语四六级等级考试，曾赴南非比勒陀利亚大学交换学习半年。</p><p>拥有较强的自我管理能力，对时间和细节把控能力较强。</p><p>有理想，爱思考，肯做事e":1470299144101,"_version_":1541817512749957000}],"count":3759,"page":1,"pages":376,"option":{"timestamp":1483777016577,"page":1,"employer_user_id":100017410306,"uid":100017410306,"jt":0,"cid":0,"dt":0,"mp":0,"wk":0,"ws":0,"et":0,"ava":0},"hotCity":[{"city_id":1,"city_name":"北京"},{"city_id":73,"city_name":"上海"},{"city_id":199,"city_n:"深圳"},{"city_id":74,"city_name":"南京"},{"city_id":169,"city_name":"武汉"},{"city_id":87,"city_name":"杭州"},{"city_id":235,"city_name":"成都"},{"city_id":116,"city_na{"city_id":288,"city_name":"西安"},{"city_id":197,"city_name":"广州"},{"city_id":183,"city_name":"长沙"},{"city_id":60,"city_name":"哈尔滨"},{"city_id":38,"city_name":"大city_id":88,"city_name":"宁波"},{"city_id":234,"city_name":"重庆"},{"city_id":200,"city_name":"珠海"},{"city_id":202,"city_name":"佛山"},{"city_id":343,"city_name":"香港"d":344,"city_name":"澳门"},{"city_id":298,"city_name":"兰州"},{"city_id":124,"city_name":"南昌"},{"city_id":218,"city_name":"南宁"},{"city_id":37,"city_name":"沈阳"},{"ci,"city_name":"郑州"},{"city_id":75,"city_name":"无锡"},{"city_id":98,"city_name":"合肥"},{"city_id":232,"city_name":"海口"},{"city_id":265,"city_name":"昆明"},{"city_id":me":"天津"},{"city_id":3,"city_name":"石家庄"},{"city_id":14,"city_name":"太原"},{"city_id":115,"city_name":"福州"}]}
